6 Session 6: Multinomial model – Statistical Methods for Transport Planning - Workbook
…
Here, the main mode is defined as the one used most frequently. If a person reported using more than one mode the same number of times, we’ll select the one that covered the greatest distance. To start, we’ll summarise the frequency and distance reported for each person and each mode.

mode_summary <- trips_work %>% 
  group_by(person_id, mode_class) %>% 
  summarise(
    mode_frequency = n(),
    mode_distance = sum(distance_miles, na.rm = TRUE),
  ) 

And, we have a quick look to the result:

mode_summary

# A tibble: 2,137 × 4
# Groups:   person_id [1,821]
    person_id mode_class mode_frequency mode_distance
        <dbl> <chr>               <int>         <dbl>
 1 2300017304 Drive SOV               4         16.2 
 2 2300021301 Bike                    1          1.36
 3 2300074501 Transit                 5         25.1 
 4 2300082802 Transit                 1          2.07
 5 2300116701 Drive SOV               1         25.2 
 6 2300124701 Drive SOV               1          3.90
 7 2300124702 Bike                    1          2.35
 8 2300124702 Drive SOV               2          5.15
 9 2300132201 Drive SOV               3         11.2 
10 2300149601 Transit                 1          9.64
# ℹ 2,127 more rows
…
